<?xml version="1.0" encoding="UTF-8" standalone="no"?>
<!-- Created with Inkscape (http://www.inkscape.org/) -->

<svg
        xmlns:dc="http://purl.org/dc/elements/1.1/"
        xmlns:cc="http://creativecommons.org/ns#"
        xmlns:rdf="http://www.w3.org/1999/02/22-rdf-syntax-ns#"
        xmlns:sodipodi="http://sodipodi.sourceforge.net/DTD/sodipodi-0.dtd"
        xmlns:inkscape="http://www.inkscape.org/namespaces/inkscape"
        xmlns="http://www.w3.org/2000/svg"
        width="256"
        height="256"
        viewBox="0 0 67.733332 67.733335"
        version="1.1"
        id="svg4510"
        inkscape:version="0.92.0 r15299"
        sodipodi:docname="vysioneer_icon_path.svg"
        inkscape:export-filename="S:\OSZ\70_Projekte\86_Vysioneer\vysioneer_icon.png"
        inkscape:export-xdpi="95.959999"
        inkscape:export-ydpi="95.959999">
    <defs
            id="defs4504">
        <filter
                style="color-interpolation-filters:sRGB"
                inkscape:label="Drop Shadow"
                id="filter4863">
            <feFlood
                    flood-opacity="0.498039"
                    flood-color="rgb(0,0,0)"
                    result="flood"
                    id="feFlood4853"/>
            <feComposite
                    in="flood"
                    in2="SourceGraphic"
                    operator="in"
                    result="composite1"
                    id="feComposite4855"/>
            <feGaussianBlur
                    in="composite1"
                    stdDeviation="1.5"
                    result="blur"
                    id="feGaussianBlur4857"/>
            <feOffset
                    dx="1.5"
                    dy="1.5"
                    result="offset"
                    id="feOffset4859"/>
            <feComposite
                    in="SourceGraphic"
                    in2="offset"
                    operator="over"
                    result="composite2"
                    id="feComposite4861"/>
        </filter>
    </defs>
    <sodipodi:namedview
            id="base"
            pagecolor="#ffffff"
            bordercolor="#666666"
            borderopacity="1.0"
            inkscape:pageopacity="0.0"
            inkscape:pageshadow="2"
            inkscape:zoom="0.98994949"
            inkscape:cx="505.33584"
            inkscape:cy="226.55272"
            inkscape:document-units="mm"
            inkscape:current-layer="layer1"
            showgrid="false"
            units="px"
            inkscape:pagecheckerboard="true"
            inkscape:window-width="1680"
            inkscape:window-height="987"
            inkscape:window-x="-8"
            inkscape:window-y="-8"
            inkscape:window-maximized="1"/>
    <metadata
            id="metadata4507">
        <rdf:RDF>
            <cc:Work
                    rdf:about="">
                <dc:format>image/svg+xml</dc:format>
                <dc:type
                        rdf:resource="http://purl.org/dc/dcmitype/StillImage"/>
                <dc:title></dc:title>
            </cc:Work>
        </rdf:RDF>
    </metadata>
    <g
            inkscape:label="Ebene 1"
            inkscape:groupmode="layer"
            id="layer1"
            transform="translate(0,-229.26665)">
        <rect
                style="fill:#ffd42a;fill-opacity:1;stroke:none;stroke-width:0.98951232;stroke-miterlimit:4;stroke-dasharray:none;stroke-opacity:1;filter:url(#filter4863)"
                id="rect4485"
                width="169.33333"
                height="84.666664"
                x="0.45867711"
                y="230.21149"
                transform="matrix(0.33333278,0,0,0.66666755,5.4915427,81.436485)"/>
        <rect
                style="fill:#806600;fill-opacity:1;stroke:none;stroke-width:0.69878387;stroke-miterlimit:4;stroke-dasharray:none;stroke-opacity:1"
                id="rect4491"
                width="56.809826"
                height="37.32547"
                x="10.950526"
                y="249.38295"/>
        <g
                aria-label="vy"
                style="font-style:normal;font-weight:normal;font-size:31.42969704px;line-height:7.36633492px;font-family:sans-serif;letter-spacing:0px;word-spacing:0px;fill:#ffd42a;fill-opacity:1;stroke:none;stroke-width:0.36831674px;stroke-linecap:butt;stroke-linejoin:miter;stroke-opacity:1"
                id="text4495">
            <path
                    d="m 33.863809,262.90297 h 4.651595 l 2.011501,7.35455 q 0.314296,1.16289 0.597164,2.38865 0.314297,1.19433 0.628594,2.42009 h 0.125718 q 0.282868,-1.22576 0.565735,-2.42009 0.314297,-1.22576 0.628594,-2.38865 l 2.04293,-7.35455 h 4.431588 l -5.091611,15.58913 h -5.343049 z"
                    style="font-style:normal;font-variant:normal;font-weight:bold;font-stretch:normal;font-family:'Source Sans Pro';-inkscape-font-specification:'Source Sans Pro Bold';fill:#ffd42a;fill-opacity:1;stroke-width:0.36831674px"
                    id="path5109"/>
            <path
                    d="m 53.709699,284.58946 q -0.722883,0 -1.225758,-0.0943 -0.502876,-0.0629 -0.974321,-0.22001 l 0.817172,-3.52013 q 0.220008,0.0629 0.502875,0.12572 0.282868,0.0629 0.534305,0.0629 1.162899,0 1.791493,-0.56573 0.628594,-0.56574 0.942891,-1.4772 l 0.220008,-0.81717 -6.003072,-15.18054 h 4.651595 l 2.231508,6.69452 q 0.345727,1.06861 0.628594,2.16865 0.282867,1.10004 0.597164,2.26294 h 0.125719 q 0.251438,-1.10004 0.502875,-2.20008 0.282868,-1.13147 0.565735,-2.23151 l 1.885782,-6.69452 h 4.431587 l -5.405908,15.74627 q -0.565734,1.4772 -1.194328,2.57724 -0.597165,1.13147 -1.414337,1.85435 -0.785742,0.75431 -1.822922,1.13147 -1.005751,0.37716 -2.388657,0.37716 z"
                    style="font-style:normal;font-variant:normal;font-weight:bold;font-stretch:normal;font-family:'Source Sans Pro';-inkscape-font-specification:'Source Sans Pro Bold';fill:#ffd42a;fill-opacity:1;stroke-width:0.36831674px"
                    id="path5111"/>
        </g>
    </g>
</svg>
